{
  "short_name": "LtP",
  "name": "Ludwig the Pig",
  "icons": [
    {
      "src": "assets/favicon-16x16.png",
      "sizes": "16x16",
      "type": "image/png"
    }, {
      "src": "assets/favicon-32x32.png",
      "sizes": "32x32",
      "type": "image/png"
    }, {
      "src": "assets/favicon.ico",
      "sizes": "32x32"
    }, {
      "src": "assets/favicon-192x192.png",
      "size": "192x192",
      "type": "image/png"
    }, {
      "src": "assets/favicon-512x512.png",
      "sizes": "512x512",
      "type": "image/png"
    }
  ],
  "start_url": "./index.html",
  "display": "standalone",
  "theme_color": "#001011",
  "background_color": "#001011"
}